[gd_scene load_steps=4 format=2]

[ext_resource path="res://gfx/swirl.png" type="Texture" id=1]

[sub_resource type="Curve" id=1]
_data = [ Vector2( 0, 0.220455 ), 0.0, 0.0, 0, 0, Vector2( 1, 1 ), 0.0, 0.0, 0, 0 ]

[sub_resource type="Gradient" id=2]
colors = PoolColorArray( 1, 1, 1, 1, 1, 1, 1, 0 )

[node name="explode" type="CPUParticles2D"]
position = Vector2( 906.438, 676.839 )
emitting = false
amount = 50
one_shot = true
explosiveness = 1.0
lifetime_randomness = 1.0
texture = ExtResource( 1 )
direction = Vector2( 0, 0 )
spread = 180.0
gravity = Vector2( 0, 0 )
initial_velocity = 154.29
initial_velocity_random = 1.0
angular_velocity = 720.0
radial_accel = 25.77
scale_amount_curve = SubResource( 1 )
color_ramp = SubResource( 2 )
